<?xml version="1.0" encoding="utf-8"?>
<!-- Generator: Adobe Illustrator 22.0.0, SVG Export Plug-In . SVG Version: 6.00 Build 0)  -->
<svg version="1.1" id="Слой_1" xmlns="http://www.w3.org/2000/svg" xmlns:xlink="http://www.w3.org/1999/xlink" x="0px" y="0px"
	 viewBox="0 0 100 100" style="enable-background:new 0 0 100 100;" xml:space="preserve">
<style type="text/css">
	.st0{fill:none;stroke:#FFFFFF;stroke-width:2;stroke-linecap:round;stroke-linejoin:round;stroke-miterlimit:10;}
</style>
<line class="st0" x1="25" y1="69.1912384" x2="74.2674713" y2="69.1912384"/>
<path class="st0" d="M67.604248,56.790699"/>
<polyline class="st0" points="67.604248,56.790699 67.604248,69.1912384 50.6433144,69.1912384 50.6433144,35.5674706 
	67.604248,35.5674706 67.604248,49.4973221 "/>
<rect x="58.7199478" y="31.7247543" class="st0" width="7.2689705" height="3.8427167"/>
<g>
	<polyline class="st0" points="30.4517288,58.6511612 30.4517288,29.8033962 50.6433144,29.8033962 50.6433144,69.1912384 
		30.4517288,69.1912384 30.4517288,63.069767 	"/>
	<rect x="34.0862122" y="25" class="st0" width="9.6919613" height="4.8033957"/>
</g>
<rect x="37.7206993" y="59.5844498" class="st0" width="5.6536441" height="9.6067915"/>
<line class="st0" x1="34.4900436" y1="35.5674706" x2="46.6049957" y2="35.5674706"/>
<line class="st0" x1="34.4900436" y1="41.3315468" x2="46.6049957" y2="41.3315468"/>
<line class="st0" x1="34.4900436" y1="47.0956192" x2="46.6049957" y2="47.0956192"/>
<line class="st0" x1="34.4900436" y1="52.8596954" x2="46.6049957" y2="52.8596954"/>
<line class="st0" x1="29.827198" y1="73.1009827" x2="43.3508644" y2="73.1009827"/>
<line class="st0" x1="61.2885056" y1="73.1009827" x2="56.9684448" y2="73.1009827"/>
</svg>
