<?xml version="1.0" encoding="utf-8"?>
<!-- Generator: Adobe Illustrator 22.0.0, SVG Export Plug-In . SVG Version: 6.00 Build 0)  -->
<svg version="1.1" id="Слой_1" xmlns="http://www.w3.org/2000/svg" xmlns:xlink="http://www.w3.org/1999/xlink" x="0px" y="0px"
	 viewBox="0 0 300 200" style="enable-background:new 0 0 300 200;" xml:space="preserve">
<style type="text/css">
	.st0{fill:#FFFFFF;stroke:#6DD2DB;stroke-width:5;stroke-linecap:round;stroke-linejoin:round;stroke-miterlimit:10;}
	.st1{fill:none;stroke:#6DD2DB;stroke-width:5;stroke-linecap:round;stroke-linejoin:round;stroke-miterlimit:10;}
	.st2{fill:#FBFBFB;}
	.st3{fill:#FFFFFF;stroke:#FF3399;stroke-width:5;stroke-linecap:round;stroke-linejoin:round;stroke-miterlimit:10;}
	.st4{fill:none;stroke:#FF3399;stroke-width:5;stroke-linecap:round;stroke-linejoin:round;stroke-miterlimit:10;}
	.st5{fill:none;stroke:#E6D9FF;stroke-width:5;stroke-linecap:round;stroke-linejoin:round;stroke-miterlimit:10;}
	.st6{fill:none;stroke:#E6D9FF;stroke-width:3;stroke-linecap:round;stroke-linejoin:round;stroke-miterlimit:10;}
	.st7{fill:none;stroke:#FF3399;stroke-width:3;stroke-linecap:round;stroke-linejoin:round;stroke-miterlimit:10;}
	.st8{fill:none;stroke:#ECDAFF;stroke-width:5;stroke-miterlimit:10;}
	.st9{fill:none;stroke:#6DD2DB;stroke-linecap:round;stroke-linejoin:round;stroke-miterlimit:10;}
	.st10{fill:none;stroke:#6DD2DB;stroke-width:2;stroke-linecap:round;stroke-linejoin:round;stroke-miterlimit:10;}
	.st11{fill:none;stroke:#ECDAFF;stroke-width:2;stroke-miterlimit:10;}
</style>
<g id="Слой_5">
</g>
<g id="Слой_2_1_">
	<path class="st0" d="M87.5,89.5833359"/>
	<polyline class="st1" points="87.5,89.5833359 150,27.083334 212.5,89.5833359 	"/>
</g>
<g id="Слой_4">
	<g>
		<path class="st2" d="M110,105.1982422c-1.3808594,0-2.5-1.1191406-2.5-2.5v-50c0-1.3808594,1.1191406-2.5,2.5-2.5h80
			c1.3808594,0,2.5,1.1191406,2.5,2.5v50c0,1.3808594-1.1191406,2.5-2.5,2.5H110z"/>
		<path class="st2" d="M190,52.69841v50h-80v-50H190 M190,47.69841h-80c-2.7614136,0-5,2.2385864-5,5v50
			c0,2.7614136,2.2385864,5,5,5h80c2.7614136,0,5-2.2385864,5-5v-50C195,49.9369965,192.7614136,47.69841,190,47.69841L190,47.69841
			z"/>
	</g>
</g>
<g id="Слой_3">
	<path class="st3" d="M110,102.69841"/>
	<polyline class="st4" points="110,83.9997482 110,52.6984138 190,52.6984138 190,102.69841 	"/>
	<line class="st4" x1="110" y1="102.69841" x2="110" y2="92.8330841"/>
	<line class="st4" x1="118.6309509" y1="62.2984123" x2="167.8372955" y2="62.2984123"/>
	<line class="st4" x1="118.6309509" y1="71.8984146" x2="155.5357208" y2="71.8984146"/>
	<line class="st4" x1="146.4994965" y1="81.4984131" x2="161.6865082" y2="81.4984131"/>
	<line class="st4" x1="118.6309509" y1="81.4984131" x2="137.0826416" y2="81.4984131"/>
	<line class="st5" x1="241.6768799" y1="175.5" x2="256.5" y2="175.5"/>
	<line class="st5" x1="54.3188477" y1="175.5" x2="226.853775" y2="175.5"/>
	<line class="st5" x1="23.5" y1="175.5" x2="45.2160339" y2="175.5"/>
	<line class="st6" x1="150.5" y1="185.5" x2="193.5" y2="185.5"/>
	<line class="st6" x1="146.5" y1="193.5" x2="90.5" y2="193.5"/>
	<path class="st7" d="M236,38.5L236,38.5c-2.4750061,0-4.5-2.0249977-4.5-4.4999962v-0.0000076
		C231.5,31.5249977,233.5249939,29.5,236,29.5l0,0c2.4750061,0,4.5,2.0249977,4.5,4.4999962v0.0000076
		C240.5,36.4750023,238.4750061,38.5,236,38.5z"/>
	<circle class="st8" cx="42.5" cy="35.5" r="10.5"/>
	<circle class="st9" cx="260.5" cy="121.5" r="4"/>
	<circle class="st10" cx="62.5" cy="121.5" r="5"/>
	<circle class="st11" cx="196" cy="156" r="5.5"/>
</g>
<g id="Слой_1_1_">
	<g>
		<g id="XMLID_1_">
			<polyline class="st1" points="87.5,156.5 87.5,172.9166718 212.5,172.9166718 212.5,89.5833359 			"/>
			<line class="st1" x1="187.6916656" y1="114.3916702" x2="212.5" y2="89.5833359"/>
			<polyline class="st1" points="176.6916656,125.3916702 150,152.0833282 87.5,89.5833359 			"/>
			<line class="st1" x1="87.5" y1="89.5833359" x2="87.5" y2="148.75"/>
		</g>
	</g>
</g>
</svg>
