<?xml version="1.0" encoding="utf-8"?>
<!-- Generator: Adobe Illustrator 21.1.0, SVG Export Plug-In . SVG Version: 6.00 Build 0)  -->
<svg version="1.1" id="Слой_1" xmlns="http://www.w3.org/2000/svg" xmlns:xlink="http://www.w3.org/1999/xlink" x="0px" y="0px"
	 viewBox="0 0 75 75" style="enable-background:new 0 0 75 75;" xml:space="preserve">
<style type="text/css">
	.st0{fill:none;stroke:#FF3399;stroke-width:2.25;stroke-linecap:round;stroke-linejoin:round;stroke-miterlimit:10;}
	.st1{fill:none;stroke:#FF3399;stroke-width:2.25;stroke-miterlimit:10;}
	.st2{fill:#FF3399;}
</style>
<g>
	<g id="XMLID_1_">
		<g>
			<path class="st0" d="M69.7,62.4l-9.4-20.6l-1.6-3.6l-3.6-7.8c-1-2.3-4.3-2.3-5.3,0L46.4,38l-1.2,2.6L35,62.8"/>
			<path class="st0" d="M45.2,40.5c0.7,0.1,1.3,0.3,2,0.6c1.4,0.7,2.4,1.8,3.8,2.4c2.8,1.4,6.3,0.6,8.7-1.3c0.2-0.1,0.4-0.3,0.5-0.5
				"/>
		</g>
	</g>
</g>
<path class="st0" d="M28.7,28.3c0.2,0.6,0.3,1.3,0.3,1.9c0,2-0.8,3.9-2.2,5.2"/>
<path class="st0" d="M14.3,28.8c0.3-1.2,0.8-2.4,1.6-3.3"/>
<path class="st0" d="M44.5,51.6l-3.4,7.5"/>
<circle class="st1" cx="21.6" cy="30.2" r="11.4"/>
<g>
	<path class="st2" d="M69.6,12.4c1.7,0,3.1,1.4,3.1,3.1v43.9c0,1.7-1.4,3.1-3.1,3.1H5.4c-1.7,0-3.1-1.4-3.1-3.1V15.5
		c0-1.7,1.4-3.1,3.1-3.1H69.6 M69.6,10.2H5.4c-2.9,0-5.4,2.4-5.4,5.4v43.9c0,2.9,2.4,5.4,5.4,5.4h64.3c2.9,0,5.4-2.4,5.4-5.4V15.5
		C75,12.6,72.6,10.2,69.6,10.2L69.6,10.2z"/>
</g>
</svg>
